{
  "id": "non",
  "title": "non",
  "description": "The non system for FoundryVTT!",
  "authors": [
    {
      "name": "Asacolips",
      "discord": "asacolips"
    },
    {
      "name": "Lee Talman",
      "discord": ".pizzaWizard"
    }
  ],
  "url": "Replace this with a link to your public repository",
  "license": "LICENSE.txt",
  "readme": "README.md",
  "bugs": "Replace this with a link to file issues or tickets",
  "changelog": "CHANGELOG.md",
  "media": [
    {
      "type": "setup",
      "url": "systems/non/assets/anvil-impact.png",
      "thumbnail": "systems/non/assets/anvil-impact.png"
    }
  ],
  "version": "2.0.13",
  "compatibility": {
    "minimum": 11,
    "verified": "11.315"
  },
  "esmodules": ["module/non.mjs"],
  "styles": ["css/non.css"],
  "languages": [
    {
      "lang": "en",
      "name": "English",
      "path": "lang/en.json"
    }
  ],
  "packs": [],
  "packFolders": [],
  "socket": false,
  "manifest": "https://ohayou.neocities.org/nonV3/system.json",
  "download": "https://gitlab.com/lejdr/nonV3/-/archive/main/nonV3-main.zip",
  "background": "systems/non/assets/anvil-impact.png",
  "gridDistance": 5,
  "gridUnits": "m",
  "primaryTokenAttribute": "health",
  "secondaryTokenAttribute": "power"
}
